<?xml version="1.0" encoding="utf-8"?>
<!-- Generator: Adobe Illustrator 18.1.1, SVG Export Plug-In . SVG Version: 6.00 Build 0)  -->
<svg version="1.1" id="Layer_1" xmlns="http://www.w3.org/2000/svg" xmlns:xlink="http://www.w3.org/1999/xlink" x="0px" y="0px"
	 viewBox="0 0 225.6 232.2" enable-background="new 0 0 225.6 232.2" xml:space="preserve">
<path fill="#414042" d="M212.5,162.7c-2.3,0-4.1-1.7-4.1-3.7v-4.7c0-2.1,1.8-3.7,4.1-3.7c2.3,0,4.1,1.7,4.1,3.7v4.7
	C216.6,161.1,214.7,162.7,212.5,162.7z M212.5,145.2c-2.3,0-4.1-1.7-4.1-3.7v-30.3c0-2.1,1.8-3.7,4.1-3.7c2.3,0,4.1,1.7,4.1,3.7
	v30.3C216.6,143.5,214.7,145.2,212.5,145.2z M212.5,97.1c-2.3,0-4.1-1.7-4.1-3.7V80.3c0-2.1,1.8-3.7,4.1-3.7c2.3,0,4.1,1.7,4.1,3.7
	v13.1C216.6,95.4,214.7,97.1,212.5,97.1z M212.5,66c-2.3,0-4.1-1.7-4.1-3.7V58c0-2.1,1.8-3.7,4.1-3.7c2.3,0,4.1,1.7,4.1,3.7v4.2
	C216.6,64.3,214.7,66,212.5,66z M212.5,43.9c-2.3,0-4.1-1.7-4.1-3.7V11.9c0-2.1,1.8-3.7,4.1-3.7c2.3,0,4.1,1.7,4.1,3.7v28.2
	C216.6,42.2,214.7,43.9,212.5,43.9z M200.3,21.8v-9.9c0-2.1-1.8-3.7-4.1-3.7c-2.3,0-4.1,1.7-4.1,3.7v9.9c0,2.1,1.8,3.7,4.1,3.7
	C198.5,25.5,200.3,23.8,200.3,21.8z M196.2,201.3c-2.3,0-4.1-1.7-4.1-3.7v-19.8c0-2.1,1.8-3.7,4.1-3.7c2.3,0,4.1,1.7,4.1,3.7v19.8
	C200.3,199.7,198.5,201.3,196.2,201.3z M196.2,163.7c-2.3,0-4.1-1.7-4.1-3.7v-17.8c0-2.1,1.8-3.7,4.1-3.7c2.3,0,4.1,1.7,4.1,3.7V160
	C200.3,162,198.5,163.7,196.2,163.7z M196.2,128.1c-2.3,0-4.1-1.7-4.1-3.7v-17.8c0-2.1,1.8-3.7,4.1-3.7c2.3,0,4.1,1.7,4.1,3.7v17.8
	C200.3,126.4,198.5,128.1,196.2,128.1z M196.2,92.5c-2.3,0-4.1-1.7-4.1-3.7v-3c0-2.1,1.8-3.7,4.1-3.7c2.3,0,4.1,1.7,4.1,3.7v3
	C200.3,90.8,198.5,92.5,196.2,92.5z M196.2,71.7c-2.3,0-4.1-1.7-4.1-3.7V39.6c0-2.1,1.8-3.7,4.1-3.7c2.3,0,4.1,1.7,4.1,3.7V68
	C200.3,70,198.5,71.7,196.2,71.7z M179.9,214.5c-2.3,0-4.1-1.7-4.1-3.7v-16.5c0-2.1,1.8-3.7,4.1-3.7c2.3,0,4.1,1.7,4.1,3.7v16.5
	C184,212.8,182.2,214.5,179.9,214.5z M179.9,179.3c-2.3,0-4.1-1.7-4.1-3.7v-13.7c0-2.1,1.8-3.7,4.1-3.7c2.3,0,4.1,1.7,4.1,3.7v13.7
	C184,177.7,182.2,179.3,179.9,179.3z M179.9,146.9c-2.3,0-4.1-1.7-4.1-3.7V133c0-2.1,1.8-3.7,4.1-3.7c2.3,0,4.1,1.7,4.1,3.7v10.2
	C184,145.2,182.2,146.9,179.9,146.9z M179.9,118c-2.3,0-4.1-1.7-4.1-3.7V87.2c0-2.1,1.8-3.7,4.1-3.7c2.3,0,4.1,1.7,4.1,3.7v27.1
	C184,116.4,182.2,118,179.9,118z M179.9,72.2c-2.3,0-4.1-1.7-4.1-3.7V49.8c0-2.1,1.8-3.7,4.1-3.7c2.3,0,4.1,1.7,4.1,3.7v18.7
	C184,70.5,182.2,72.2,179.9,72.2z M179.9,34.9c-2.3,0-4.1-1.7-4.1-3.7V11.8c0-2.1,1.8-3.7,4.1-3.7c2.3,0,4.1,1.7,4.1,3.7v19.3
	C184,33.2,182.2,34.9,179.9,34.9z M147.4,222.6c-2.3,0-4.1-1.7-4.1-3.7v-31.7c0-2.1,1.8-3.7,4.1-3.7c2.3,0,4.1,1.7,4.1,3.7v31.7
	C151.5,221,149.7,222.6,147.4,222.6z M147.4,172.3c-2.3,0-4.1-1.7-4.1-3.7V161c0-2.1,1.8-3.7,4.1-3.7c2.3,0,4.1,1.7,4.1,3.7v7.5
	C151.5,170.6,149.7,172.3,147.4,172.3z M167.8,21.1v-9.3c0-2.1-1.8-3.7-4.1-3.7c-2.3,0-4.1,1.7-4.1,3.7v9.3c0,2.1,1.8,4.4,4.1,4.4
	C165.9,25.5,167.8,23.2,167.8,21.1z M147.8,25.5c-2.3,0-4.1-1.7-4.1-3.7v-10c0-2.1,1.8-3.7,4.1-3.7c2.3,0,4.1,1.7,4.1,3.7v10
	C151.9,23.8,150,25.5,147.8,25.5z M151.9,61.9V41c0-2.1-1.8-3.7-4.1-3.7c-2.3,0-4.1,1.7-4.1,3.7v20.9c0,2.1,1.8,3.7,4.1,3.7
	C150,65.6,151.9,63.9,151.9,61.9z M163.7,220.8c-2.3,0-4.1-1.7-4.1-3.7v-33.6c0-2.1,1.8-3.7,4.1-3.7c2.3,0,4.1,1.7,4.1,3.7v33.6
	C167.8,219.1,165.9,220.8,163.7,220.8z M163.7,169.3c-2.3,0-4.1-1.7-4.1-3.7v-36.4c0-2.1,1.8-3.7,4.1-3.7c2.3,0,4.1,1.7,4.1,3.7
	v36.4C167.8,167.7,165.9,169.3,163.7,169.3z M163.7,118.2c-2.3,0-4.1-1.7-4.1-3.7v-3.7c0-2.1,1.8-3.7,4.1-3.7c2.3,0,4.1,1.7,4.1,3.7
	v3.7C167.8,116.5,165.9,118.2,163.7,118.2z M163.7,96.7c-2.3,0-4.1-1.7-4.1-3.7V64.6c0-2.1,1.8-3.7,4.1-3.7c2.3,0,4.1,1.7,4.1,3.7
	V93C167.8,95.1,165.9,96.7,163.7,96.7z M163.7,50.5c-2.3,0-4.1-1.7-4.1-3.7v-9.9c0-2.1,1.8-3.7,4.1-3.7c2.3,0,4.1,1.7,4.1,3.7v9.9
	C167.8,48.9,165.9,50.5,163.7,50.5z M135.2,19.3v-7.5c0-2.1-1.8-3.7-4.1-3.7c-2.3,0-4.1,1.7-4.1,3.7v7.5c0,2.1,1.8,3.7,4.1,3.7
	C133.4,23,135.2,21.3,135.2,19.3z M127,11.7v7.5c0,2.1,1.8,3.7,4.1,3.7c2.3,0,4.1-1.7,4.1-3.7v-7.5 M135.2,61.7V49.1
	c0-2.1-1.8-3.7-4.1-3.7c-2.3,0-4.1,1.7-4.1,3.7v12.7c0,2.1,1.8,3.7,4.1,3.7C133.4,65.5,135.2,63.8,135.2,61.7z M127,49.1v12.7
	c0,2.1,1.8,3.7,4.1,3.7c2.3,0,4.1-1.7,4.1-3.7V49.1 M131.1,193.4c-2.3,0-4.1-1.7-4.1-3.7v-21.9c0-2.1,1.8-3.7,4.1-3.7
	c2.3,0,4.1,1.7,4.1,3.7v21.9C135.2,191.7,133.4,193.4,131.1,193.4z M135.2,218.8v-9.9c0-2.1-1.8-3.7-4.1-3.7c-2.3,0-4.1,1.7-4.1,3.7
	v9.9c0,2.1,1.8,3.7,4.1,3.7C133.4,222.5,135.2,220.8,135.2,218.8z M118.9,218.8v-19.2c0-2.1-1.8-3.7-4.1-3.7c-2.3,0-4.1,1.7-4.1,3.7
	v19.2c0,2.1,1.8,3.7,4.1,3.7C117.1,222.5,118.9,220.8,118.9,218.8z M118.9,180.2v-11.7c0-2.1-1.8-3.7-4.1-3.7
	c-2.3,0-4.1,1.7-4.1,3.7v11.7c0,2.1,1.8,3.7,4.1,3.7C117.1,184,118.9,182.3,118.9,180.2z M118.9,61.7V43.9c0-2.1-1.8-3.7-4.1-3.7
	c-2.3,0-4.1,1.7-4.1,3.7v17.8c0,2.1,1.8,3.7,4.1,3.7C117.1,65.5,118.9,63.8,118.9,61.7z M118.9,30.4V11.7c0-2.1-1.8-3.7-4.1-3.7
	c-2.3,0-4.1,1.7-4.1,3.7v18.7c0,2.1,1.8,3.7,4.1,3.7C117.1,34.2,118.9,32.5,118.9,30.4z M102.7,18.7v-6.9c0-2.1-1.8-3.7-4.1-3.7
	c-2.3,0-4.1,1.7-4.1,3.7v6.9c0,2.1,1.8,3.7,4.1,3.7C100.8,22.4,102.7,20.7,102.7,18.7z M98.6,66.5c-2.3,0-4.1-1.7-4.1-3.7V36.5
	c0-2.1,1.8-3.7,4.1-3.7c2.3,0,4.1,1.7,4.1,3.7v26.3C102.7,64.8,100.8,66.5,98.6,66.5z M102.7,218.3v-49.5c0-2.1-1.8-3.7-4.1-3.7
	c-2.3,0-4.1,1.7-4.1,3.7v49.5c0,2.1,1.8,3.7,4.1,3.7C100.8,222,102.7,220.3,102.7,218.3z M82.3,72.9c-2.3,0-4.1-1.7-4.1-3.7V49.1
	c0-2.1,1.8-3.7,4.1-3.7c2.3,0,4.1,1.7,4.1,3.7v20.1C86.4,71.2,84.6,72.9,82.3,72.9z M82.3,34.2c-2.3,0-4.1-1.7-4.1-3.7V11.7
	c0-2.1,1.8-3.7,4.1-3.7c2.3,0,4.1,1.7,4.1,3.7v18.7C86.4,32.5,84.6,34.2,82.3,34.2z M70.1,23.9V13.5c0-2.1-1.8-3.7-4.1-3.7
	c-2.3,0-4.1,1.7-4.1,3.7v10.4c0,2.1,1.8,3.7,4.1,3.7C68.3,27.6,70.1,26,70.1,23.9z M66.1,222.4c-2.3,0-4.1-1.7-4.1-3.7v-34.6
	c0-2.1,1.8-3.7,4.1-3.7c2.3,0,4.1,1.7,4.1,3.7v34.6C70.1,220.8,68.3,222.4,66.1,222.4z M66.1,170.1c-2.3,0-4.1-1.7-4.1-3.7v-17.8
	c0-2.1,1.8-3.7,4.1-3.7c2.3,0,4.1,1.7,4.1,3.7v17.8C70.1,168.4,68.3,170.1,66.1,170.1z M66.1,134.4c-2.3,0-4.1-1.7-4.1-3.7v-4.4
	c0-2.1,1.8-3.7,4.1-3.7c2.3,0,4.1,1.7,4.1,3.7v4.4C70.1,132.8,68.3,134.4,66.1,134.4z M66.1,112.3c-2.3,0-4.1-1.7-4.1-3.7V77.3
	c0-2.1,1.8-3.7,4.1-3.7c2.3,0,4.1,1.7,4.1,3.7v31.2C70.1,110.6,68.3,112.3,66.1,112.3z M66.1,63.2c-2.3,0-4.1-1.7-4.1-3.7V41.7
	c0-2.1,1.8-3.7,4.1-3.7c2.3,0,4.1,1.7,4.1,3.7v17.8C70.1,61.6,68.3,63.2,66.1,63.2z M49.8,222.7c-2.3,0-4.1-1.7-4.1-3.7v-10.6
	c0-2.1,1.8-3.7,4.1-3.7c2.3,0,4.1,1.7,4.1,3.7V219C53.9,221,52,222.7,49.8,222.7z M49.8,193.4c-2.3,0-4.1-1.7-4.1-3.7V171
	c0-2.1,1.8-3.7,4.1-3.7c2.3,0,4.1,1.7,4.1,3.7v18.7C53.9,191.8,52,193.4,49.8,193.4z M49.8,156.1c-2.3,0-4.1-1.7-4.1-3.7v-32.1
	c0-2.1,1.8-3.7,4.1-3.7c2.3,0,4.1,1.7,4.1,3.7v32.1C53.9,154.4,52,156.1,49.8,156.1z M49.8,105.3c-2.3,0-4.1-1.7-4.1-3.7v-13
	c0-2.1,1.8-3.7,4.1-3.7c2.3,0,4.1,1.7,4.1,3.7v13C53.9,103.7,52,105.3,49.8,105.3z M49.8,73.6c-2.3,0-4.1-1.7-4.1-3.7V59
	c0-2.1,1.8-3.7,4.1-3.7c2.3,0,4.1,1.7,4.1,3.7v10.9C53.9,71.9,52,73.6,49.8,73.6z M49.8,44c-2.3,0-4.1-1.7-4.1-3.7V19.7
	c0-2.1,1.8-3.7,4.1-3.7c2.3,0,4.1,1.7,4.1,3.7v20.6C53.9,42.4,52,44,49.8,44z M37.6,58.5V32.8c0-2.1-1.8-3.7-4.1-3.7
	c-2.3,0-4.1,1.7-4.1,3.7v25.7c0,2.1,1.8,3.7,4.1,3.7C35.8,62.2,37.6,60.6,37.6,58.5z M33.5,222.3c-2.3,0-4.1-1.7-4.1-3.7V217
	c0-2.1,1.8-3.7,4.1-3.7c2.3,0,4.1,1.7,4.1,3.7v1.6C37.6,220.6,35.8,222.3,33.5,222.3z M33.5,202.5c-2.3,0-4.1-1.7-4.1-3.7v-21.3
	c0-2.1,1.8-3.7,4.1-3.7c2.3,0,4.1,1.7,4.1,3.7v21.3C37.6,200.9,35.8,202.5,33.5,202.5z M33.5,163.4c-2.3,0-4.1-1.7-4.1-3.7v-27
	c0-2.1,1.8-3.7,4.1-3.7c2.3,0,4.1,1.7,4.1,3.7v27C37.6,161.7,35.8,163.4,33.5,163.4z M33.5,118.6c-2.3,0-4.1-1.7-4.1-3.7V97.1
	c0-2.1,1.8-3.7,4.1-3.7c2.3,0,4.1,1.7,4.1,3.7v17.8C37.6,116.9,35.8,118.6,33.5,118.6z M33.5,83c-2.3,0-4.1-1.7-4.1-3.7v-3
	c0-2.1,1.8-3.7,4.1-3.7c2.3,0,4.1,1.7,4.1,3.7v3C37.6,81.3,35.8,83,33.5,83z M17.3,222.4c-2.3,0-4.1-1.7-4.1-3.7v-25.1
	c0-2.1,1.8-3.7,4.1-3.7c2.3,0,4.1,1.7,4.1,3.7v25.1C21.3,220.8,19.5,222.4,17.3,222.4z M17.3,178.6c-2.3,0-4.1-1.7-4.1-3.7v-11.6
	c0-2.1,1.8-3.7,4.1-3.7c2.3,0,4.1,1.7,4.1,3.7v11.6C21.3,177,19.5,178.6,17.3,178.6z M17.3,148.3c-2.3,0-4.1-1.7-4.1-3.7v-22.2
	c0-2.1,1.8-3.7,4.1-3.7c2.3,0,4.1,1.7,4.1,3.7v22.2C21.3,146.7,19.5,148.3,17.3,148.3z M17.3,108.2c-2.3,0-4.1-1.7-4.1-3.7v-4.6
	c0-2.1,1.8-3.7,4.1-3.7c2.3,0,4.1,1.7,4.1,3.7v4.6C21.3,106.5,19.5,108.2,17.3,108.2z M17.3,86c-2.3,0-4.1-1.7-4.1-3.7V71.3
	c0-2.1,1.8-3.7,4.1-3.7c2.3,0,4.1,1.7,4.1,3.7v10.9C21.3,84.3,19.5,86,17.3,86z M131.3,39.8c-2.3,0-4.1-1.7-4.1-3.7V30
	c0-2.1,1.8-3.7,4.1-3.7c2.3,0,4.1,1.7,4.1,3.7v6.1C135.3,38.1,133.5,39.8,131.3,39.8z"/>
</svg>
